<svg xmlns="http://www.w3.org/2000/svg" width="20" height="32" viewBox="0 0 20 32">
  <polygon
    fill="red"
    points="1239.286 312 1237.44 310.066 1224.077 296 1220 299.868 1231.527 312 1220 324.132 1224.077 328 1237.44 313.934"
    transform="translate(-1220 -296)"
  />
</svg>